…
``` r
tidycensus::census_api_key("API KEY GOES HERE")
targets::tar_make()
```

Survey responses used in our analysis are stored in the `clean_survey`
target:

``` r
targets::tar_read(clean_survey)
```

    ## # A tibble: 1,100 × 91
    ##    SEX   AGEP  RACE5 HOUSING HOWNSHP INCOME HHSIZE SCHL  RACE2 Q5    Q6    Q7   
    ##    <fct> <fct> <fct> <fct>   <fct>   <fct>   <dbl> <fct> <fct> <fct> <fct> <lgl>
    ##  1 Male  25:34 Asian Townho… Rent    $50,0…      5 Bach… Non-… Priv… Filt… TRUE 
    ##  2 Fema… 65+   Whit… Apartm… Rent    < $25…      1 High… White Publ… Filt… FALSE
    ##  3 Fema… 18:24 Whit… Single… Rent    $25,0…      3 Mast… White Publ… Bott… FALSE
    ##  4 Fema… 45:54 Two … Apartm… Rent    $25,0…      2 Other Non-… Publ… Bott… TRUE 
    ##  5 Fema… 35:44 Whit… Single… Own     $25,0…      4 Mast… White I do… Filt… FALSE
    ##  6 Fema… 35:44 Whit… Single… Own     $75,0…      5 High… White Publ… Bott… FALSE
    ##  7 Fema… 55:64 Whit… Single… Rent    < $25…      3 High… White Publ… Unfi… FALSE
    ##  8 Fema… 35:44 Blac… Apartm… Rent    $50,0…      2 High… Non-… Publ… Bott… TRUE 
    ##  9 Male  45:54 Two … Townho… Rent    $25,0…      2 Doct… Non-… Priv… Unfi… TRUE 
    ## 10 Fema… 35:44 Blac… Apartm… Rent    $25,0…      2 High… Non-… Priv… Filt… TRUE 
    ## # ℹ 1,090 more rows
    ## # ℹ 79 more variables: Q7_1 <fct>, Q7_2 <fct>, Q7_3 <fct>, Q7_4 <fct>,
    ## #   Q7_5 <fct>, Q7_6 <fct>, Q7_7 <fct>, Q7_8 <fct>, Q7_9 <fct>, Q7_10 <fct>,
    ## #   Q7_11 <fct>, Q7_12 <fct>, Q8 <int>, Q9 <lgl>, Q9_1 <fct>, Q9_2 <fct>,
    ## #   Q9_3 <fct>, Q9_4 <fct>, Q9_5 <fct>, Q9_6 <fct>, Q9_7 <fct>, Q9_8 <fct>,
    ## #   Q9_9 <fct>, Q9_10 <fct>, Q9_11 <fct>, Q9_12 <fct>, Q10_1 <fct>,
    ## #   Q10_2 <fct>, Q10_3 <fct>, Q10_4 <fct>, Q10_5 <fct>, Q10_6 <fct>, …
…
